P8105 Final Project Report
…
p.value

0.1244

Additional Analysis: Modeling

For our secondary analysis, we excluded all schools with less than 5 students receiving offers to specialized high schools to avoid positivity violations. Because our dependent variable is a count (number of offers), we used a poisson linear regression. However, because the distribution of the data was overspread, the variance did not equal the mean. To avoid the violation of this assumption, we used a Quasi-Poisson model, which assumes that the variance is a linear function of the mean. In our primary model, we calculated the change in the number of SHSAT offers by a 10% increase in the cumulative Covid-19 incidence. We progressively adjusted the model, including the total number of testers by MOZCTA. Additionally, we run a secondary model with 10% increase in the cumulative mortality rate as the main predictor.

#this is the main model (10% change in cumulative incidence as predictor)

final_mod_zcta

## # A tibble: 178 × 25
##      `1` modzcta all_years_avg_testers all_years_avg_offers all_years_wt_avg
##    <dbl>   <dbl>                 <dbl>                <dbl>            <dbl>
##  1     1   10001                   5                    5               5   
##  2     2   10002                  36.9                 28.4            43.2 
##  3     3   10003                  42.8                 32.2            44.2 
##  4     4   10004                  62.5                 36              10   
##  5     5   10009                  19.5                 11.3             6.12
##  6     6   10010                  80.5                 50.5            40.5 
##  7     7   10011                  97.5                 75              99.2 
##  8     8   10021                 255                  152.             75.5 
##  9     9   10023                  11.3                 10               7   
## 10    10   10024                  53.8                 40              28.7 
## # … with 168 more rows, and 20 more variables: 2015_19_avg_testers <dbl>,
## #   2015_19_avg_offers <dbl>, 2015_19_wt_avg <dbl>, avg_testers_2020 <dbl>,
## #   avg_offers_2020 <dbl>, wt_avg_2020 <dbl>, positive <dbl>, total <dbl>,
## #   modzcta_cum_perc_pos <dbl>, 3_2020 <dbl>, 4_2020 <dbl>, 5_2020 <dbl>,
## #   6_2020 <dbl>, 7_2020 <dbl>, 8_2020 <dbl>, 9_2020 <dbl>, 10_2020 <dbl>,
## #   11_2020 <dbl>, 12_2020 <dbl>, cum_ave_death_rate <dbl>
…
